design/src/adders/output.txt
Half Adder:
VCD info: dumpfile adders.vcd opened for output.
x x x x
0 0 0 0
0 1 1 0
1 0 1 0
Full Adder:
x x x x x
0 0 0 0 0
0 0 1 1 0
0 1 0 1 0
0 1 1 0 1
1 0 0 1 0
1 0 1 0 1
1 1 0 0 1
Ripple Adder:
xxxx xxxx xxxx x
1000 0000 1000 0
0100 0001 0101 0
0010 0010 0100 0
0001 0011 0100 0
0010 0100 0110 0
0100 0101 1001 0
1000 0110 1110 0
0100 0111 1011 0
0010 1000 1010 0
0001 1001 1010 0
0010 1010 1100 0
0100 1011 1111 0
1000 1100 0100 1
0100 1101 0001 1
0010 1110 0000 1
BCD Adder:
xxxx xxxx xxxx x
0110 0110 0010 1
0001 0010 0011 0
0110 1001 0101 1
0100 0010 0110 0
0100 0100 1000 0
0111 0110 0011 1
0111 1000 0101 1
adders_tb.v:68: $finish called at 360 (1s)
